ARM GAS  C:\Users\dmarsch\AppData\Local\Temp\ccCp06SP.s 			page 1


   1              		.syntax unified
   2              		.cpu cortex-m3
   3              		.fpu softvfp
   4              		.eabi_attribute 20, 1
   5              		.eabi_attribute 21, 1
   6              		.eabi_attribute 23, 3
   7              		.eabi_attribute 24, 1
   8              		.eabi_attribute 25, 1
   9              		.eabi_attribute 26, 1
  10              		.eabi_attribute 30, 1
  11              		.eabi_attribute 34, 1
  12              		.eabi_attribute 18, 4
  13              		.thumb
  14              		.syntax unified
  15              		.file	"main.c"
  16              		.text
  17              	.Ltext0:
  18              		.cfi_sections	.debug_frame
  19              		.section	.text.main,"ax",%progbits
  20              		.align	2
  21              		.global	main
  22              		.thumb
  23              		.thumb_func
  24              		.type	main, %function
  25              	main:
  26              	.LFB63:
  27              		.file 1 "main.c"
   1:main.c        **** /* ========================================
   2:main.c        ****  *
   3:main.c        ****  * Copyright YOUR COMPANY, THE YEAR
   4:main.c        ****  * All Rights Reserved
   5:main.c        ****  * UNPUBLISHED, LICENSED SOFTWARE.
   6:main.c        ****  *
   7:main.c        ****  * CONFIDENTIAL AND PROPRIETARY INFORMATION
   8:main.c        ****  * WHICH IS THE PROPERTY OF your company.
   9:main.c        ****  *
  10:main.c        ****  * ========================================
  11:main.c        **** */
  12:main.c        **** #include "project.h"
  13:main.c        **** 
  14:main.c        **** int main(void)
  15:main.c        **** {
  28              		.loc 1 15 0
  29              		.cfi_startproc
  30              		@ Volatile: function does not return.
  31              		@ args = 0, pretend = 0, frame = 0
  32              		@ frame_needed = 0, uses_anonymous_args = 0
  33 0000 08B5     		push	{r3, lr}
  34              		.cfi_def_cfa_offset 8
  35              		.cfi_offset 3, -8
  36              		.cfi_offset 14, -4
  16:main.c        ****     CyGlobalIntEnable; /* Enable global interrupts. */
  37              		.loc 1 16 0
  38              		.syntax unified
  39              	@ 16 "main.c" 1
  40 0002 62B6     		CPSIE   i
  41              	@ 0 "" 2
ARM GAS  C:\Users\dmarsch\AppData\Local\Temp\ccCp06SP.s 			page 2


  17:main.c        **** 
  18:main.c        ****     /* Place your initialization/startup code here (e.g. MyInst_Start()) */
  19:main.c        ****     SW1_ISR_Start();
  42              		.loc 1 19 0
  43              		.thumb
  44              		.syntax unified
  45 0004 FFF7FEFF 		bl	SW1_ISR_Start
  46              	.LVL0:
  47              	.L2:
  48 0008 FEE7     		b	.L2
  49              		.cfi_endproc
  50              	.LFE63:
  51              		.size	main, .-main
  52 000a 00BF     		.text
  53              	.Letext0:
  54              		.file 2 "c:\\program files (x86)\\cypress\\psoc creator\\4.2\\psoc creator\\import\\gnu\\arm\\5.4.
  55              		.file 3 "c:\\program files (x86)\\cypress\\psoc creator\\4.2\\psoc creator\\import\\gnu\\arm\\5.4.
  56              		.file 4 "Generated_Source\\PSoC5/core_cm3.h"
  57              		.file 5 "Generated_Source\\PSoC5/SW1_ISR.h"
  58              		.section	.debug_info,"",%progbits
  59              	.Ldebug_info0:
  60 0000 E0000000 		.4byte	0xe0
  61 0004 0400     		.2byte	0x4
  62 0006 00000000 		.4byte	.Ldebug_abbrev0
  63 000a 04       		.byte	0x4
  64 000b 01       		.uleb128 0x1
  65 000c 48000000 		.4byte	.LASF16
  66 0010 0C       		.byte	0xc
  67 0011 3C000000 		.4byte	.LASF17
  68 0015 1B010000 		.4byte	.LASF18
  69 0019 00000000 		.4byte	.Ldebug_ranges0+0
  70 001d 00000000 		.4byte	0
  71 0021 00000000 		.4byte	.Ldebug_line0
  72 0025 02       		.uleb128 0x2
  73 0026 01       		.byte	0x1
  74 0027 06       		.byte	0x6
  75 0028 68010000 		.4byte	.LASF0
  76 002c 02       		.uleb128 0x2
  77 002d 01       		.byte	0x1
  78 002e 08       		.byte	0x8
  79 002f FF000000 		.4byte	.LASF1
  80 0033 02       		.uleb128 0x2
  81 0034 02       		.byte	0x2
  82 0035 05       		.byte	0x5
  83 0036 90010000 		.4byte	.LASF2
  84 003a 02       		.uleb128 0x2
  85 003b 02       		.byte	0x2
  86 003c 07       		.byte	0x7
  87 003d 0E000000 		.4byte	.LASF3
  88 0041 03       		.uleb128 0x3
  89 0042 80010000 		.4byte	.LASF9
  90 0046 02       		.byte	0x2
  91 0047 3F       		.byte	0x3f
  92 0048 4C000000 		.4byte	0x4c
  93 004c 02       		.uleb128 0x2
  94 004d 04       		.byte	0x4
  95 004e 05       		.byte	0x5
ARM GAS  C:\Users\dmarsch\AppData\Local\Temp\ccCp06SP.s 			page 3


  96 004f 12010000 		.4byte	.LASF4
  97 0053 02       		.uleb128 0x2
  98 0054 04       		.byte	0x4
  99 0055 07       		.byte	0x7
 100 0056 D6000000 		.4byte	.LASF5
 101 005a 02       		.uleb128 0x2
 102 005b 08       		.byte	0x8
 103 005c 05       		.byte	0x5
 104 005d 00000000 		.4byte	.LASF6
 105 0061 02       		.uleb128 0x2
 106 0062 08       		.byte	0x8
 107 0063 07       		.byte	0x7
 108 0064 E8000000 		.4byte	.LASF7
 109 0068 04       		.uleb128 0x4
 110 0069 04       		.byte	0x4
 111 006a 05       		.byte	0x5
 112 006b 696E7400 		.ascii	"int\000"
 113 006f 02       		.uleb128 0x2
 114 0070 04       		.byte	0x4
 115 0071 07       		.byte	0x7
 116 0072 21000000 		.4byte	.LASF8
 117 0076 03       		.uleb128 0x3
 118 0077 9A010000 		.4byte	.LASF10
 119 007b 03       		.byte	0x3
 120 007c 2C       		.byte	0x2c
 121 007d 41000000 		.4byte	0x41
 122 0081 02       		.uleb128 0x2
 123 0082 04       		.byte	0x4
 124 0083 04       		.byte	0x4
 125 0084 8A010000 		.4byte	.LASF11
 126 0088 02       		.uleb128 0x2
 127 0089 08       		.byte	0x8
 128 008a 04       		.byte	0x4
 129 008b 54010000 		.4byte	.LASF12
 130 008f 02       		.uleb128 0x2
 131 0090 01       		.byte	0x1
 132 0091 08       		.byte	0x8
 133 0092 0D010000 		.4byte	.LASF13
 134 0096 02       		.uleb128 0x2
 135 0097 04       		.byte	0x4
 136 0098 07       		.byte	0x7
 137 0099 A2010000 		.4byte	.LASF14
 138 009d 02       		.uleb128 0x2
 139 009e 08       		.byte	0x8
 140 009f 04       		.byte	0x4
 141 00a0 74010000 		.4byte	.LASF15
 142 00a4 05       		.uleb128 0x5
 143 00a5 43000000 		.4byte	.LASF19
 144 00a9 01       		.byte	0x1
 145 00aa 0E       		.byte	0xe
 146 00ab 68000000 		.4byte	0x68
 147 00af 00000000 		.4byte	.LFB63
 148 00b3 0A000000 		.4byte	.LFE63-.LFB63
 149 00b7 01       		.uleb128 0x1
 150 00b8 9C       		.byte	0x9c
 151 00b9 C7000000 		.4byte	0xc7
 152 00bd 06       		.uleb128 0x6
ARM GAS  C:\Users\dmarsch\AppData\Local\Temp\ccCp06SP.s 			page 4


 153 00be 08000000 		.4byte	.LVL0
 154 00c2 D8000000 		.4byte	0xd8
 155 00c6 00       		.byte	0
 156 00c7 07       		.uleb128 0x7
 157 00c8 5B010000 		.4byte	.LASF20
 158 00cc 04       		.byte	0x4
 159 00cd 1207     		.2byte	0x712
 160 00cf D3000000 		.4byte	0xd3
 161 00d3 08       		.uleb128 0x8
 162 00d4 76000000 		.4byte	0x76
 163 00d8 09       		.uleb128 0x9
 164 00d9 2E000000 		.4byte	.LASF21
 165 00dd 2E000000 		.4byte	.LASF21
 166 00e1 05       		.byte	0x5
 167 00e2 17       		.byte	0x17
 168 00e3 00       		.byte	0
 169              		.section	.debug_abbrev,"",%progbits
 170              	.Ldebug_abbrev0:
 171 0000 01       		.uleb128 0x1
 172 0001 11       		.uleb128 0x11
 173 0002 01       		.byte	0x1
 174 0003 25       		.uleb128 0x25
 175 0004 0E       		.uleb128 0xe
 176 0005 13       		.uleb128 0x13
 177 0006 0B       		.uleb128 0xb
 178 0007 03       		.uleb128 0x3
 179 0008 0E       		.uleb128 0xe
 180 0009 1B       		.uleb128 0x1b
 181 000a 0E       		.uleb128 0xe
 182 000b 55       		.uleb128 0x55
 183 000c 17       		.uleb128 0x17
 184 000d 11       		.uleb128 0x11
 185 000e 01       		.uleb128 0x1
 186 000f 10       		.uleb128 0x10
 187 0010 17       		.uleb128 0x17
 188 0011 00       		.byte	0
 189 0012 00       		.byte	0
 190 0013 02       		.uleb128 0x2
 191 0014 24       		.uleb128 0x24
 192 0015 00       		.byte	0
 193 0016 0B       		.uleb128 0xb
 194 0017 0B       		.uleb128 0xb
 195 0018 3E       		.uleb128 0x3e
 196 0019 0B       		.uleb128 0xb
 197 001a 03       		.uleb128 0x3
 198 001b 0E       		.uleb128 0xe
 199 001c 00       		.byte	0
 200 001d 00       		.byte	0
 201 001e 03       		.uleb128 0x3
 202 001f 16       		.uleb128 0x16
 203 0020 00       		.byte	0
 204 0021 03       		.uleb128 0x3
 205 0022 0E       		.uleb128 0xe
 206 0023 3A       		.uleb128 0x3a
 207 0024 0B       		.uleb128 0xb
 208 0025 3B       		.uleb128 0x3b
 209 0026 0B       		.uleb128 0xb
ARM GAS  C:\Users\dmarsch\AppData\Local\Temp\ccCp06SP.s 			page 5


 210 0027 49       		.uleb128 0x49
 211 0028 13       		.uleb128 0x13
 212 0029 00       		.byte	0
 213 002a 00       		.byte	0
 214 002b 04       		.uleb128 0x4
 215 002c 24       		.uleb128 0x24
 216 002d 00       		.byte	0
 217 002e 0B       		.uleb128 0xb
 218 002f 0B       		.uleb128 0xb
 219 0030 3E       		.uleb128 0x3e
 220 0031 0B       		.uleb128 0xb
 221 0032 03       		.uleb128 0x3
 222 0033 08       		.uleb128 0x8
 223 0034 00       		.byte	0
 224 0035 00       		.byte	0
 225 0036 05       		.uleb128 0x5
 226 0037 2E       		.uleb128 0x2e
 227 0038 01       		.byte	0x1
 228 0039 3F       		.uleb128 0x3f
 229 003a 19       		.uleb128 0x19
 230 003b 03       		.uleb128 0x3
 231 003c 0E       		.uleb128 0xe
 232 003d 3A       		.uleb128 0x3a
 233 003e 0B       		.uleb128 0xb
 234 003f 3B       		.uleb128 0x3b
 235 0040 0B       		.uleb128 0xb
 236 0041 27       		.uleb128 0x27
 237 0042 19       		.uleb128 0x19
 238 0043 49       		.uleb128 0x49
 239 0044 13       		.uleb128 0x13
 240 0045 8701     		.uleb128 0x87
 241 0047 19       		.uleb128 0x19
 242 0048 11       		.uleb128 0x11
 243 0049 01       		.uleb128 0x1
 244 004a 12       		.uleb128 0x12
 245 004b 06       		.uleb128 0x6
 246 004c 40       		.uleb128 0x40
 247 004d 18       		.uleb128 0x18
 248 004e 9742     		.uleb128 0x2117
 249 0050 19       		.uleb128 0x19
 250 0051 01       		.uleb128 0x1
 251 0052 13       		.uleb128 0x13
 252 0053 00       		.byte	0
 253 0054 00       		.byte	0
 254 0055 06       		.uleb128 0x6
 255 0056 898201   		.uleb128 0x4109
 256 0059 00       		.byte	0
 257 005a 11       		.uleb128 0x11
 258 005b 01       		.uleb128 0x1
 259 005c 31       		.uleb128 0x31
 260 005d 13       		.uleb128 0x13
 261 005e 00       		.byte	0
 262 005f 00       		.byte	0
 263 0060 07       		.uleb128 0x7
 264 0061 34       		.uleb128 0x34
 265 0062 00       		.byte	0
 266 0063 03       		.uleb128 0x3
ARM GAS  C:\Users\dmarsch\AppData\Local\Temp\ccCp06SP.s 			page 6


 267 0064 0E       		.uleb128 0xe
 268 0065 3A       		.uleb128 0x3a
 269 0066 0B       		.uleb128 0xb
 270 0067 3B       		.uleb128 0x3b
 271 0068 05       		.uleb128 0x5
 272 0069 49       		.uleb128 0x49
 273 006a 13       		.uleb128 0x13
 274 006b 3F       		.uleb128 0x3f
 275 006c 19       		.uleb128 0x19
 276 006d 3C       		.uleb128 0x3c
 277 006e 19       		.uleb128 0x19
 278 006f 00       		.byte	0
 279 0070 00       		.byte	0
 280 0071 08       		.uleb128 0x8
 281 0072 35       		.uleb128 0x35
 282 0073 00       		.byte	0
 283 0074 49       		.uleb128 0x49
 284 0075 13       		.uleb128 0x13
 285 0076 00       		.byte	0
 286 0077 00       		.byte	0
 287 0078 09       		.uleb128 0x9
 288 0079 2E       		.uleb128 0x2e
 289 007a 00       		.byte	0
 290 007b 3F       		.uleb128 0x3f
 291 007c 19       		.uleb128 0x19
 292 007d 3C       		.uleb128 0x3c
 293 007e 19       		.uleb128 0x19
 294 007f 6E       		.uleb128 0x6e
 295 0080 0E       		.uleb128 0xe
 296 0081 03       		.uleb128 0x3
 297 0082 0E       		.uleb128 0xe
 298 0083 3A       		.uleb128 0x3a
 299 0084 0B       		.uleb128 0xb
 300 0085 3B       		.uleb128 0x3b
 301 0086 0B       		.uleb128 0xb
 302 0087 00       		.byte	0
 303 0088 00       		.byte	0
 304 0089 00       		.byte	0
 305              		.section	.debug_aranges,"",%progbits
 306 0000 1C000000 		.4byte	0x1c
 307 0004 0200     		.2byte	0x2
 308 0006 00000000 		.4byte	.Ldebug_info0
 309 000a 04       		.byte	0x4
 310 000b 00       		.byte	0
 311 000c 0000     		.2byte	0
 312 000e 0000     		.2byte	0
 313 0010 00000000 		.4byte	.LFB63
 314 0014 0A000000 		.4byte	.LFE63-.LFB63
 315 0018 00000000 		.4byte	0
 316 001c 00000000 		.4byte	0
 317              		.section	.debug_ranges,"",%progbits
 318              	.Ldebug_ranges0:
 319 0000 00000000 		.4byte	.LFB63
 320 0004 0A000000 		.4byte	.LFE63
 321 0008 00000000 		.4byte	0
 322 000c 00000000 		.4byte	0
 323              		.section	.debug_line,"",%progbits
ARM GAS  C:\Users\dmarsch\AppData\Local\Temp\ccCp06SP.s 			page 7


 324              	.Ldebug_line0:
 325 0000 63010000 		.section	.debug_str,"MS",%progbits,1
 325      02004C01 
 325      00000201 
 325      FB0E0D00 
 325      01010101 
 326              	.LASF6:
 327 0000 6C6F6E67 		.ascii	"long long int\000"
 327      206C6F6E 
 327      6720696E 
 327      7400
 328              	.LASF3:
 329 000e 73686F72 		.ascii	"short unsigned int\000"
 329      7420756E 
 329      7369676E 
 329      65642069 
 329      6E7400
 330              	.LASF8:
 331 0021 756E7369 		.ascii	"unsigned int\000"
 331      676E6564 
 331      20696E74 
 331      00
 332              	.LASF21:
 333 002e 5357315F 		.ascii	"SW1_ISR_Start\000"
 333      4953525F 
 333      53746172 
 333      7400
 334              	.LASF17:
 335 003c 6D61696E 		.ascii	"main.c\000"
 335      2E6300
 336              	.LASF19:
 337 0043 6D61696E 		.ascii	"main\000"
 337      00
 338              	.LASF16:
 339 0048 474E5520 		.ascii	"GNU C11 5.4.1 20160609 (release) [ARM/embedded-5-br"
 339      43313120 
 339      352E342E 
 339      31203230 
 339      31363036 
 340 007b 616E6368 		.ascii	"anch revision 237715] -mcpu=cortex-m3 -mthumb -g -O"
 340      20726576 
 340      6973696F 
 340      6E203233 
 340      37373135 
 341 00ae 67202D66 		.ascii	"g -ffunction-sections -ffat-lto-objects\000"
 341      66756E63 
 341      74696F6E 
 341      2D736563 
 341      74696F6E 
 342              	.LASF5:
 343 00d6 6C6F6E67 		.ascii	"long unsigned int\000"
 343      20756E73 
 343      69676E65 
 343      6420696E 
 343      7400
 344              	.LASF7:
 345 00e8 6C6F6E67 		.ascii	"long long unsigned int\000"
ARM GAS  C:\Users\dmarsch\AppData\Local\Temp\ccCp06SP.s 			page 8


 345      206C6F6E 
 345      6720756E 
 345      7369676E 
 345      65642069 
 346              	.LASF1:
 347 00ff 756E7369 		.ascii	"unsigned char\000"
 347      676E6564 
 347      20636861 
 347      7200
 348              	.LASF13:
 349 010d 63686172 		.ascii	"char\000"
 349      00
 350              	.LASF4:
 351 0112 6C6F6E67 		.ascii	"long int\000"
 351      20696E74 
 351      00
 352              	.LASF18:
 353 011b 433A5C55 		.ascii	"C:\\Users\\dmarsch\\Documents\\PSoC Creator\\lab3\\"
 353      73657273 
 353      5C646D61 
 353      72736368 
 353      5C446F63 
 354 0148 70617274 		.ascii	"part1.cydsn\000"
 354      312E6379 
 354      64736E00 
 355              	.LASF12:
 356 0154 646F7562 		.ascii	"double\000"
 356      6C6500
 357              	.LASF20:
 358 015b 49544D5F 		.ascii	"ITM_RxBuffer\000"
 358      52784275 
 358      66666572 
 358      00
 359              	.LASF0:
 360 0168 7369676E 		.ascii	"signed char\000"
 360      65642063 
 360      68617200 
 361              	.LASF15:
 362 0174 6C6F6E67 		.ascii	"long double\000"
 362      20646F75 
 362      626C6500 
 363              	.LASF9:
 364 0180 5F5F696E 		.ascii	"__int32_t\000"
 364      7433325F 
 364      7400
 365              	.LASF11:
 366 018a 666C6F61 		.ascii	"float\000"
 366      7400
 367              	.LASF2:
 368 0190 73686F72 		.ascii	"short int\000"
 368      7420696E 
 368      7400
 369              	.LASF10:
 370 019a 696E7433 		.ascii	"int32_t\000"
 370      325F7400 
 371              	.LASF14:
 372 01a2 73697A65 		.ascii	"sizetype\000"
ARM GAS  C:\Users\dmarsch\AppData\Local\Temp\ccCp06SP.s 			page 9


 372      74797065 
 372      00
 373              		.ident	"GCC: (GNU Tools for ARM Embedded Processors) 5.4.1 20160609 (release) [ARM/embedded-5-bran
