ARM GAS  C:\Users\dmarsch\AppData\Local\Temp\ccFGZXwh.s 			page 1


   1              		.syntax unified
   2              		.cpu cortex-m3
   3              		.fpu softvfp
   4              		.eabi_attribute 20, 1
   5              		.eabi_attribute 21, 1
   6              		.eabi_attribute 23, 3
   7              		.eabi_attribute 24, 1
   8              		.eabi_attribute 25, 1
   9              		.eabi_attribute 26, 1
  10              		.eabi_attribute 30, 1
  11              		.eabi_attribute 34, 1
  12              		.eabi_attribute 18, 4
  13              		.thumb
  14              		.syntax unified
  15              		.file	"cymetadata.c"
  16              		.text
  17              	.Ltext0:
  18              		.cfi_sections	.debug_frame
  19              		.global	cy_metadata
  20              		.global	cy_meta_flashprotect
  21              		.global	cy_meta_wonvl
  22              		.global	cy_meta_custnvl
  23              		.global	cy_meta_configecc
  24              		.section	.cyconfigecc,"a",%progbits
  25              		.align	2
  26              		.type	cy_meta_configecc, %object
  27              		.size	cy_meta_configecc, 32
  28              	cy_meta_configecc:
  29 0000 02       		.byte	2
  30 0001 45       		.byte	69
  31 0002 00       		.byte	0
  32 0003 40       		.byte	64
  33 0004 18       		.byte	24
  34 0005 01       		.byte	1
  35 0006 19       		.byte	25
  36 0007 01       		.byte	1
  37 0008 00       		.byte	0
  38 0009 0B       		.byte	11
  39 000a 0B       		.byte	11
  40 000b 00       		.byte	0
  41 000c 00       		.byte	0
  42 000d 00       		.byte	0
  43 000e 00       		.byte	0
  44 000f 00       		.byte	0
  45 0010 00       		.byte	0
  46 0011 7F       		.byte	127
  47 0012 7F       		.byte	127
  48 0013 00       		.byte	0
  49 0014 00       		.byte	0
  50 0015 00       		.byte	0
  51 0016 00       		.byte	0
  52 0017 00       		.byte	0
  53 0018 03       		.byte	3
  54 0019 03       		.byte	3
  55 001a 00       		.byte	0
  56 001b 00       		.byte	0
  57 001c 00       		.byte	0
ARM GAS  C:\Users\dmarsch\AppData\Local\Temp\ccFGZXwh.s 			page 2


  58 001d 00       		.byte	0
  59 001e 00       		.byte	0
  60 001f 00       		.byte	0
  61              		.section	.cywolatch,"a",%progbits
  62              		.align	2
  63              		.type	cy_meta_wonvl, %object
  64              		.size	cy_meta_wonvl, 4
  65              	cy_meta_wonvl:
  66 0000 BC       		.byte	-68
  67 0001 90       		.byte	-112
  68 0002 AC       		.byte	-84
  69 0003 AF       		.byte	-81
  70              		.section	.cycustnvl,"a",%progbits
  71              		.align	2
  72              		.type	cy_meta_custnvl, %object
  73              		.size	cy_meta_custnvl, 4
  74              	cy_meta_custnvl:
  75 0000 00       		.byte	0
  76 0001 00       		.byte	0
  77 0002 40       		.byte	64
  78 0003 05       		.byte	5
  79              		.section	.cymeta,"a",%progbits
  80              		.align	2
  81              		.type	cy_metadata, %object
  82              		.size	cy_metadata, 12
  83              	cy_metadata:
  84 0000 00       		.byte	0
  85 0001 01       		.byte	1
  86 0002 2E       		.byte	46
  87 0003 16       		.byte	22
  88 0004 10       		.byte	16
  89 0005 69       		.byte	105
  90 0006 00       		.byte	0
  91 0007 01       		.byte	1
  92 0008 00       		.byte	0
  93 0009 00       		.byte	0
  94 000a 00       		.byte	0
  95 000b 00       		.byte	0
  96              		.section	.cyflashprotect,"a",%progbits
  97              		.align	2
  98              		.type	cy_meta_flashprotect, %object
  99              		.size	cy_meta_flashprotect, 256
 100              	cy_meta_flashprotect:
 101 0000 00000000 		.space	256
 101      00000000 
 101      00000000 
 101      00000000 
 101      00000000 
 102              		.text
 103              	.Letext0:
 104              		.file 1 "c:\\program files (x86)\\cypress\\psoc creator\\4.2\\psoc creator\\import\\gnu\\arm\\5.4.
 105              		.file 2 "c:\\program files (x86)\\cypress\\psoc creator\\4.2\\psoc creator\\import\\gnu\\arm\\5.4.
 106              		.file 3 "Generated_Source\\PSoC5\\cymetadata.c"
 107              		.section	.debug_info,"",%progbits
 108              	.Ldebug_info0:
 109 0000 30010000 		.4byte	0x130
 110 0004 0400     		.2byte	0x4
ARM GAS  C:\Users\dmarsch\AppData\Local\Temp\ccFGZXwh.s 			page 3


 111 0006 00000000 		.4byte	.Ldebug_abbrev0
 112 000a 04       		.byte	0x4
 113 000b 01       		.uleb128 0x1
 114 000c 55000000 		.4byte	.LASF17
 115 0010 0C       		.byte	0xc
 116 0011 AF010000 		.4byte	.LASF18
 117 0015 16000000 		.4byte	.LASF19
 118 0019 00000000 		.4byte	.Ldebug_line0
 119 001d 02       		.uleb128 0x2
 120 001e 01       		.byte	0x1
 121 001f 06       		.byte	0x6
 122 0020 A3010000 		.4byte	.LASF0
 123 0024 03       		.uleb128 0x3
 124 0025 00000000 		.4byte	.LASF9
 125 0029 01       		.byte	0x1
 126 002a 1D       		.byte	0x1d
 127 002b 2F000000 		.4byte	0x2f
 128 002f 02       		.uleb128 0x2
 129 0030 01       		.byte	0x1
 130 0031 08       		.byte	0x8
 131 0032 47000000 		.4byte	.LASF1
 132 0036 02       		.uleb128 0x2
 133 0037 02       		.byte	0x2
 134 0038 05       		.byte	0x5
 135 0039 90010000 		.4byte	.LASF2
 136 003d 02       		.uleb128 0x2
 137 003e 02       		.byte	0x2
 138 003f 07       		.byte	0x7
 139 0040 F5000000 		.4byte	.LASF3
 140 0044 02       		.uleb128 0x2
 141 0045 04       		.byte	0x4
 142 0046 05       		.byte	0x5
 143 0047 9A010000 		.4byte	.LASF4
 144 004b 02       		.uleb128 0x2
 145 004c 04       		.byte	0x4
 146 004d 07       		.byte	0x7
 147 004e E3000000 		.4byte	.LASF5
 148 0052 02       		.uleb128 0x2
 149 0053 08       		.byte	0x8
 150 0054 05       		.byte	0x5
 151 0055 82010000 		.4byte	.LASF6
 152 0059 02       		.uleb128 0x2
 153 005a 08       		.byte	0x8
 154 005b 07       		.byte	0x7
 155 005c 37010000 		.4byte	.LASF7
 156 0060 04       		.uleb128 0x4
 157 0061 04       		.byte	0x4
 158 0062 05       		.byte	0x5
 159 0063 696E7400 		.ascii	"int\000"
 160 0067 02       		.uleb128 0x2
 161 0068 04       		.byte	0x4
 162 0069 07       		.byte	0x7
 163 006a 2A010000 		.4byte	.LASF8
 164 006e 03       		.uleb128 0x3
 165 006f 4E010000 		.4byte	.LASF10
 166 0073 02       		.byte	0x2
 167 0074 18       		.byte	0x18
ARM GAS  C:\Users\dmarsch\AppData\Local\Temp\ccFGZXwh.s 			page 4


 168 0075 24000000 		.4byte	0x24
 169 0079 05       		.uleb128 0x5
 170 007a 90000000 		.4byte	0x90
 171 007e 89000000 		.4byte	0x89
 172 0082 06       		.uleb128 0x6
 173 0083 89000000 		.4byte	0x89
 174 0087 1F       		.byte	0x1f
 175 0088 00       		.byte	0
 176 0089 02       		.uleb128 0x2
 177 008a 04       		.byte	0x4
 178 008b 07       		.byte	0x7
 179 008c 79010000 		.4byte	.LASF11
 180 0090 07       		.uleb128 0x7
 181 0091 6E000000 		.4byte	0x6e
 182 0095 08       		.uleb128 0x8
 183 0096 18010000 		.4byte	.LASF12
 184 009a 03       		.byte	0x3
 185 009b 1F       		.byte	0x1f
 186 009c A6000000 		.4byte	0xa6
 187 00a0 05       		.uleb128 0x5
 188 00a1 03       		.byte	0x3
 189 00a2 00000000 		.4byte	cy_meta_configecc
 190 00a6 07       		.uleb128 0x7
 191 00a7 79000000 		.4byte	0x79
 192 00ab 05       		.uleb128 0x5
 193 00ac 90000000 		.4byte	0x90
 194 00b0 BB000000 		.4byte	0xbb
 195 00b4 06       		.uleb128 0x6
 196 00b5 89000000 		.4byte	0x89
 197 00b9 03       		.byte	0x3
 198 00ba 00       		.byte	0
 199 00bb 08       		.uleb128 0x8
 200 00bc 08010000 		.4byte	.LASF13
 201 00c0 03       		.byte	0x3
 202 00c1 30       		.byte	0x30
 203 00c2 CC000000 		.4byte	0xcc
 204 00c6 05       		.uleb128 0x5
 205 00c7 03       		.byte	0x3
 206 00c8 00000000 		.4byte	cy_meta_custnvl
 207 00cc 07       		.uleb128 0x7
 208 00cd AB000000 		.4byte	0xab
 209 00d1 08       		.uleb128 0x8
 210 00d2 6B010000 		.4byte	.LASF14
 211 00d6 03       		.byte	0x3
 212 00d7 3E       		.byte	0x3e
 213 00d8 E2000000 		.4byte	0xe2
 214 00dc 05       		.uleb128 0x5
 215 00dd 03       		.byte	0x3
 216 00de 00000000 		.4byte	cy_meta_wonvl
 217 00e2 07       		.uleb128 0x7
 218 00e3 AB000000 		.4byte	0xab
 219 00e7 05       		.uleb128 0x5
 220 00e8 90000000 		.4byte	0x90
 221 00ec F7000000 		.4byte	0xf7
 222 00f0 06       		.uleb128 0x6
 223 00f1 89000000 		.4byte	0x89
 224 00f5 FF       		.byte	0xff
ARM GAS  C:\Users\dmarsch\AppData\Local\Temp\ccFGZXwh.s 			page 5


 225 00f6 00       		.byte	0
 226 00f7 08       		.uleb128 0x8
 227 00f8 56010000 		.4byte	.LASF15
 228 00fc 03       		.byte	0x3
 229 00fd 4C       		.byte	0x4c
 230 00fe 08010000 		.4byte	0x108
 231 0102 05       		.uleb128 0x5
 232 0103 03       		.byte	0x3
 233 0104 00000000 		.4byte	cy_meta_flashprotect
 234 0108 07       		.uleb128 0x7
 235 0109 E7000000 		.4byte	0xe7
 236 010d 05       		.uleb128 0x5
 237 010e 90000000 		.4byte	0x90
 238 0112 1D010000 		.4byte	0x11d
 239 0116 06       		.uleb128 0x6
 240 0117 89000000 		.4byte	0x89
 241 011b 0B       		.byte	0xb
 242 011c 00       		.byte	0
 243 011d 08       		.uleb128 0x8
 244 011e 0A000000 		.4byte	.LASF16
 245 0122 03       		.byte	0x3
 246 0123 79       		.byte	0x79
 247 0124 2E010000 		.4byte	0x12e
 248 0128 05       		.uleb128 0x5
 249 0129 03       		.byte	0x3
 250 012a 00000000 		.4byte	cy_metadata
 251 012e 07       		.uleb128 0x7
 252 012f 0D010000 		.4byte	0x10d
 253 0133 00       		.byte	0
 254              		.section	.debug_abbrev,"",%progbits
 255              	.Ldebug_abbrev0:
 256 0000 01       		.uleb128 0x1
 257 0001 11       		.uleb128 0x11
 258 0002 01       		.byte	0x1
 259 0003 25       		.uleb128 0x25
 260 0004 0E       		.uleb128 0xe
 261 0005 13       		.uleb128 0x13
 262 0006 0B       		.uleb128 0xb
 263 0007 03       		.uleb128 0x3
 264 0008 0E       		.uleb128 0xe
 265 0009 1B       		.uleb128 0x1b
 266 000a 0E       		.uleb128 0xe
 267 000b 10       		.uleb128 0x10
 268 000c 17       		.uleb128 0x17
 269 000d 00       		.byte	0
 270 000e 00       		.byte	0
 271 000f 02       		.uleb128 0x2
 272 0010 24       		.uleb128 0x24
 273 0011 00       		.byte	0
 274 0012 0B       		.uleb128 0xb
 275 0013 0B       		.uleb128 0xb
 276 0014 3E       		.uleb128 0x3e
 277 0015 0B       		.uleb128 0xb
 278 0016 03       		.uleb128 0x3
 279 0017 0E       		.uleb128 0xe
 280 0018 00       		.byte	0
 281 0019 00       		.byte	0
ARM GAS  C:\Users\dmarsch\AppData\Local\Temp\ccFGZXwh.s 			page 6


 282 001a 03       		.uleb128 0x3
 283 001b 16       		.uleb128 0x16
 284 001c 00       		.byte	0
 285 001d 03       		.uleb128 0x3
 286 001e 0E       		.uleb128 0xe
 287 001f 3A       		.uleb128 0x3a
 288 0020 0B       		.uleb128 0xb
 289 0021 3B       		.uleb128 0x3b
 290 0022 0B       		.uleb128 0xb
 291 0023 49       		.uleb128 0x49
 292 0024 13       		.uleb128 0x13
 293 0025 00       		.byte	0
 294 0026 00       		.byte	0
 295 0027 04       		.uleb128 0x4
 296 0028 24       		.uleb128 0x24
 297 0029 00       		.byte	0
 298 002a 0B       		.uleb128 0xb
 299 002b 0B       		.uleb128 0xb
 300 002c 3E       		.uleb128 0x3e
 301 002d 0B       		.uleb128 0xb
 302 002e 03       		.uleb128 0x3
 303 002f 08       		.uleb128 0x8
 304 0030 00       		.byte	0
 305 0031 00       		.byte	0
 306 0032 05       		.uleb128 0x5
 307 0033 01       		.uleb128 0x1
 308 0034 01       		.byte	0x1
 309 0035 49       		.uleb128 0x49
 310 0036 13       		.uleb128 0x13
 311 0037 01       		.uleb128 0x1
 312 0038 13       		.uleb128 0x13
 313 0039 00       		.byte	0
 314 003a 00       		.byte	0
 315 003b 06       		.uleb128 0x6
 316 003c 21       		.uleb128 0x21
 317 003d 00       		.byte	0
 318 003e 49       		.uleb128 0x49
 319 003f 13       		.uleb128 0x13
 320 0040 2F       		.uleb128 0x2f
 321 0041 0B       		.uleb128 0xb
 322 0042 00       		.byte	0
 323 0043 00       		.byte	0
 324 0044 07       		.uleb128 0x7
 325 0045 26       		.uleb128 0x26
 326 0046 00       		.byte	0
 327 0047 49       		.uleb128 0x49
 328 0048 13       		.uleb128 0x13
 329 0049 00       		.byte	0
 330 004a 00       		.byte	0
 331 004b 08       		.uleb128 0x8
 332 004c 34       		.uleb128 0x34
 333 004d 00       		.byte	0
 334 004e 03       		.uleb128 0x3
 335 004f 0E       		.uleb128 0xe
 336 0050 3A       		.uleb128 0x3a
 337 0051 0B       		.uleb128 0xb
 338 0052 3B       		.uleb128 0x3b
ARM GAS  C:\Users\dmarsch\AppData\Local\Temp\ccFGZXwh.s 			page 7


 339 0053 0B       		.uleb128 0xb
 340 0054 49       		.uleb128 0x49
 341 0055 13       		.uleb128 0x13
 342 0056 3F       		.uleb128 0x3f
 343 0057 19       		.uleb128 0x19
 344 0058 02       		.uleb128 0x2
 345 0059 18       		.uleb128 0x18
 346 005a 00       		.byte	0
 347 005b 00       		.byte	0
 348 005c 00       		.byte	0
 349              		.section	.debug_aranges,"",%progbits
 350 0000 14000000 		.4byte	0x14
 351 0004 0200     		.2byte	0x2
 352 0006 00000000 		.4byte	.Ldebug_info0
 353 000a 04       		.byte	0x4
 354 000b 00       		.byte	0
 355 000c 0000     		.2byte	0
 356 000e 0000     		.2byte	0
 357 0010 00000000 		.4byte	0
 358 0014 00000000 		.4byte	0
 359              		.section	.debug_line,"",%progbits
 360              	.Ldebug_line0:
 361 0000 3D010000 		.section	.debug_str,"MS",%progbits,1
 361      02003701 
 361      00000201 
 361      FB0E0D00 
 361      01010101 
 362              	.LASF9:
 363 0000 5F5F7569 		.ascii	"__uint8_t\000"
 363      6E74385F 
 363      7400
 364              	.LASF16:
 365 000a 63795F6D 		.ascii	"cy_metadata\000"
 365      65746164 
 365      61746100 
 366              	.LASF19:
 367 0016 433A5C55 		.ascii	"C:\\Users\\dmarsch\\Documents\\lab3\\lab3\\part2.cy"
 367      73657273 
 367      5C646D61 
 367      72736368 
 367      5C446F63 
 368 0043 64736E00 		.ascii	"dsn\000"
 369              	.LASF1:
 370 0047 756E7369 		.ascii	"unsigned char\000"
 370      676E6564 
 370      20636861 
 370      7200
 371              	.LASF17:
 372 0055 474E5520 		.ascii	"GNU C11 5.4.1 20160609 (release) [ARM/embedded-5-br"
 372      43313120 
 372      352E342E 
 372      31203230 
 372      31363036 
 373 0088 616E6368 		.ascii	"anch revision 237715] -mcpu=cortex-m3 -mthumb -g -O"
 373      20726576 
 373      6973696F 
 373      6E203233 
ARM GAS  C:\Users\dmarsch\AppData\Local\Temp\ccFGZXwh.s 			page 8


 373      37373135 
 374 00bb 67202D66 		.ascii	"g -ffunction-sections -ffat-lto-objects\000"
 374      66756E63 
 374      74696F6E 
 374      2D736563 
 374      74696F6E 
 375              	.LASF5:
 376 00e3 6C6F6E67 		.ascii	"long unsigned int\000"
 376      20756E73 
 376      69676E65 
 376      6420696E 
 376      7400
 377              	.LASF3:
 378 00f5 73686F72 		.ascii	"short unsigned int\000"
 378      7420756E 
 378      7369676E 
 378      65642069 
 378      6E7400
 379              	.LASF13:
 380 0108 63795F6D 		.ascii	"cy_meta_custnvl\000"
 380      6574615F 
 380      63757374 
 380      6E766C00 
 381              	.LASF12:
 382 0118 63795F6D 		.ascii	"cy_meta_configecc\000"
 382      6574615F 
 382      636F6E66 
 382      69676563 
 382      6300
 383              	.LASF8:
 384 012a 756E7369 		.ascii	"unsigned int\000"
 384      676E6564 
 384      20696E74 
 384      00
 385              	.LASF7:
 386 0137 6C6F6E67 		.ascii	"long long unsigned int\000"
 386      206C6F6E 
 386      6720756E 
 386      7369676E 
 386      65642069 
 387              	.LASF10:
 388 014e 75696E74 		.ascii	"uint8_t\000"
 388      385F7400 
 389              	.LASF15:
 390 0156 63795F6D 		.ascii	"cy_meta_flashprotect\000"
 390      6574615F 
 390      666C6173 
 390      6870726F 
 390      74656374 
 391              	.LASF14:
 392 016b 63795F6D 		.ascii	"cy_meta_wonvl\000"
 392      6574615F 
 392      776F6E76 
 392      6C00
 393              	.LASF11:
 394 0179 73697A65 		.ascii	"sizetype\000"
 394      74797065 
ARM GAS  C:\Users\dmarsch\AppData\Local\Temp\ccFGZXwh.s 			page 9


 394      00
 395              	.LASF6:
 396 0182 6C6F6E67 		.ascii	"long long int\000"
 396      206C6F6E 
 396      6720696E 
 396      7400
 397              	.LASF2:
 398 0190 73686F72 		.ascii	"short int\000"
 398      7420696E 
 398      7400
 399              	.LASF4:
 400 019a 6C6F6E67 		.ascii	"long int\000"
 400      20696E74 
 400      00
 401              	.LASF0:
 402 01a3 7369676E 		.ascii	"signed char\000"
 402      65642063 
 402      68617200 
 403              	.LASF18:
 404 01af 47656E65 		.ascii	"Generated_Source\\PSoC5\\cymetadata.c\000"
 404      72617465 
 404      645F536F 
 404      75726365 
 404      5C50536F 
 405              		.ident	"GCC: (GNU Tools for ARM Embedded Processors) 5.4.1 20160609 (release) [ARM/embedded-5-bran
